Chapter 5 Data Wrangling | Data Analysis in Medicine and Health using R
…
Next, we examine the first 10 observations of the data. There rest are NOT SHOWN. You can also see the types of the variables:

chr (character),

int (integer),

dbl (double)

stroke

## # A tibble: 213 x 12
##    doa       dod    status sex   dm      gcs   sbp   dbp   wbc time2 stroke_type
##    <chr>     <chr>  <chr>  <chr> <chr> <dbl> <dbl> <dbl> <dbl> <dbl> <chr>      
##  1 17/2/2011 18/2/~ alive  male  no       15   151    73  12.5     1 IS         
##  2 20/3/2011 21/3/~ alive  male  no       15   196   123   8.1     1 IS         
##  3 9/4/2011  10/4/~ dead   fema~ no       11   126    78  15.3     1 HS         
##  4 12/4/2011 13/4/~ dead   male  no        3   170   103  13.9     1 IS         
##  5 12/4/2011 13/4/~ alive  fema~ yes      15   103    62  14.7     1 IS         
##  6 4/5/2011  5/5/2~ dead   fema~ no        3    91    55  14.2     1 HS         
##  7 22/5/2011 23/5/~ alive  male  no       11   171    80   8.7     1 IS         
##  8 23/5/2011 24/5/~ alive  fema~ yes      15   106    67   5.5     1 IS         
##  9 11/7/2011 12/7/~ dead   fema~ yes       6   170    90  10.5     1 HS         
## 10 4/9/2011  5/9/2~ alive  fema~ no       15   123    83   7.2     1 IS         
## # ... with 203 more rows, and 1 more variable: referral_from <chr>
…
Now for stroke dataset, we will convert doa and dod, both a character variable to variable of date type

stroke <- stroke %>% mutate(doa = dmy(doa), dod = dmy(dod))
stroke

## # A tibble: 213 x 12
##    doa        dod        status sex    dm      gcs   sbp   dbp   wbc time2
##    <date>     <date>     <chr>  <chr>  <chr> <dbl> <dbl> <dbl> <dbl> <dbl>
##  1 2011-02-17 2011-02-18 alive  male   no       15   151    73  12.5     1
##  2 2011-03-20 2011-03-21 alive  male   no       15   196   123   8.1     1
##  3 2011-04-09 2011-04-10 dead   female no       11   126    78  15.3     1
##  4 2011-04-12 2011-04-13 dead   male   no        3   170   103  13.9     1
##  5 2011-04-12 2011-04-13 alive  female yes      15   103    62  14.7     1
##  6 2011-05-04 2011-05-05 dead   female no        3    91    55  14.2     1
##  7 2011-05-22 2011-05-23 alive  male   no       11   171    80   8.7     1
##  8 2011-05-23 2011-05-24 alive  female yes      15   106    67   5.5     1
##  9 2011-07-11 2011-07-12 dead   female yes       6   170    90  10.5     1
## 10 2011-09-04 2011-09-05 alive  female no       15   123    83   7.2     1
## # ... with 203 more rows, and 2 more variables: stroke_type <chr>,
## #   referral_from <chr>
…
pep2 <- pep2 %>% rename(sex = gender,
                        asa = ASA)

5.9 Sorting data and select observation

The function arrange() can sort the data. And the function filter() allows you to select observations based on your criteria.

5.9.1 Sorting data using arrange()

We can sort data in ascending or descending order. To do that, we will use arrange(). It will sort the observation based on the values of the specified variable. For dataset stroke, let us sort the doa from the earliest.

stroke %>% arrange(doa)

## # A tibble: 213 x 12
##    doa        dod        status sex    dm      gcs   sbp   dbp   wbc time2
##    <date>     <date>     <chr>  <chr>  <chr> <dbl> <dbl> <dbl> <dbl> <dbl>
##  1 2011-01-01 2011-01-05 dead   female yes      15   150    87  12.5     4
##  2 2011-01-03 2011-01-06 alive  male   no       15   152   108   7.4     3
##  3 2011-01-06 2011-01-22 alive  female yes      15   231   117  22.4    16
##  4 2011-01-16 2011-02-08 alive  female no       11   110    79   9.6    23
##  5 2011-01-18 2011-01-23 alive  male   no       15   199   134  18.7     5
##  6 2011-01-20 2011-01-24 dead   female no        7   190   101  11.3     4
##  7 2011-01-25 2011-02-16 alive  female yes       5   145   102  15.8    22
##  8 2011-01-28 2011-02-11 dead   female yes      13   161    96   8.5    14
##  9 2011-01-29 2011-02-02 alive  male   no       15   222   129   9       4
## 10 2011-01-31 2011-02-02 alive  male   no       15   161   107   9.5     2
## # ... with 203 more rows, and 2 more variables: stroke_type <chr>,
## #   referral_from <chr>

5.9.2 Select observation using filter()

To select observations based on certain criteria, we use the filter() function. Here, in this example, we will create a new dataset (which we will name as stroke_m_40) that contains patients that have sex as male and Glasgow Coma Scale (gcs) at 7 or higher:

gender is male

gcs at 7 or higher

stroke_m_7 <- stroke %>% filter(sex == 'male', gcs >= 7)
stroke_m_7

## # A tibble: 85 x 12
##    doa        dod        status sex   dm      gcs   sbp   dbp   wbc time2
##    <date>     <date>     <chr>  <chr> <chr> <dbl> <dbl> <dbl> <dbl> <dbl>
##  1 2011-02-17 2011-02-18 alive  male  no       15   151    73  12.5     1
##  2 2011-03-20 2011-03-21 alive  male  no       15   196   123   8.1     1
##  3 2011-05-22 2011-05-23 alive  male  no       11   171    80   8.7     1
##  4 2011-11-28 2011-11-29 dead   male  no       10   207   128  10.8     1
##  5 2012-02-22 2012-02-23 dead   male  no        7   150    80  15.5     1
##  6 2012-03-25 2012-03-26 alive  male  no       14   128    79  10.3     1
##  7 2012-04-02 2012-04-03 alive  male  no       15   143    59   7.1     1
##  8 2011-01-31 2011-02-02 alive  male  no       15   161   107   9.5     2
##  9 2011-02-06 2011-02-08 alive  male  no       15   153    61  11.2     2
## 10 2011-02-20 2011-02-22 alive  male  no       15   143    93  15.6     2
## # ... with 75 more rows, and 2 more variables: stroke_type <chr>,
## #   referral_from <chr>

Next, we will create a new dataset (named as stroke_high_BP) that contain

sbp above 130 OR dbp above 90, AND

stroke_high_BP <- stroke %>% filter(sbp > 130 | dbp > 90)
stroke_high_BP

## # A tibble: 173 x 12
##    doa        dod        status sex    dm      gcs   sbp   dbp   wbc time2
##    <date>     <date>     <chr>  <chr>  <chr> <dbl> <dbl> <dbl> <dbl> <dbl>
##  1 2011-02-17 2011-02-18 alive  male   no       15   151    73  12.5     1
##  2 2011-03-20 2011-03-21 alive  male   no       15   196   123   8.1     1
##  3 2011-04-12 2011-04-13 dead   male   no        3   170   103  13.9     1
##  4 2011-05-22 2011-05-23 alive  male   no       11   171    80   8.7     1
##  5 2011-07-11 2011-07-12 dead   female yes       6   170    90  10.5     1
##  6 2011-10-12 2011-10-13 alive  female no       15   144    89   5.7     1
##  7 2011-10-21 2011-10-22 alive  male   no        4   230   120  12.7     1
##  8 2011-10-26 2011-10-27 dead   female no        4   207   120  16.5     1
##  9 2011-11-28 2011-11-29 dead   male   no       10   207   128  10.8     1
## 10 2011-12-29 2011-12-30 alive  female no       12   178   100   8.8     1
## # ... with 163 more rows, and 2 more variables: stroke_type <chr>,
## #   referral_from <chr>
…
